10/15/19 14:49

Problem 1 (5 points):
Score += 5

Problem 2 (5 points):
Score += 5

Problem 3 (10 points):
Score += 10

Problem 4 (5 points):
Score += 5

Problem 5 (10 points):
Score += 10

Code Quality (5 points):
Score += 5

Total score: 40/40 = 100.0%

Excellent!

-------------------------------------------------------------------------------

10/21/19 08:30

Problem 1 (5 points):
Score += 5

Problem 2 (5 points):
Score += 5

Problem 3 (10 points):
Score += 10

Problem 4 (5 points):
Score += 5

Problem 5 (10 points):
label axes
Score += 9

Code Quality (5 points):
Score += 5

Total score: 39/40 = 97.5%

Great job!

-------------------------------------------------------------------------------

